{
  "Style_directory" : "C:/Users/orner/Desktop/Studium-HDM/4.Semester/DeepPortrait/Frontend/Bilder/Styleimages",
  "Camera_id"       : "0",
  "Smtp_username"   : "deepportraithdm@gmail.com", 
  "Smtp_password"   : "deep1pwd", 
  "Smtp_server"     : "smtp.gmail.com", 
  "Smtp_port"       : "465",
  "Websocket_url"   : "ws://localhost:1133"
}